{
    "DNDConfig": null,
    "__parentReadjusting__": false,
    "_height_": {
        "type": "string",
        "value": "34dp"
    },
    "_left_": {
        "type": "string",
        "value": "6.97%"
    },
    "_margin_": [
        0,
        0,
        0,
        0
    ],
    "_padding_": [
        0,
        0,
        0,
        0
    ],
    "_right_": {
        "type": "string",
        "value": "5%"
    },
    "_skin_": "s525adb1473e4c309189b4c1379bb237",
    "_top_": {
        "type": "string",
        "value": "40.96%"
    },
    "_width_": {
        "type": "string",
        "value": "50%"
    },
    "allboxes": [],
    "autogrowmode": 0,
    "canUpdateUI": true,
    "children": [
        "lblRememberMe",
        "imgRememberme",
        "imgUnselected"
    ],
    "clipbounds": false,
    "containerweight": 100,
    "enabled": false,
    "enablescrolling": true,
    "id": "flxRememberMe",
    "info": null,
    "isvisible": true,
    "kuid": "cfd0e0fc384448e4b66b969ffd01ca43",
    "layouttype": 2,
    "name": "kony.ui.FlexContainer",
    "onclick": "AS_FlexContainer_g2543e36542245ff9f1555ced141c4d9",
    "orientation": 6,
    "parent": "flxCredentials",
    "percent": true,
    "pf": "frmLogin",
    "snapgridsize": 10,
    "snaptogrid": true,
    "wType": "FlexContainer",
    "widgetalignment": 1,
    "zindex": 1
}