{
    "@class": "com.kony.gen.viz.model.component.KVizTextBox2",
    "DNDConfig": null,
    "__parentReadjusting__": false,
    "_height_": {
        "type": "string",
        "value": "36dp"
    },
    "_left_": {
        "type": "string",
        "value": "0dp"
    },
    "_margin_": [
        0,
        0,
        0,
        0
    ],
    "_padding_": [
        0,
        0,
        0,
        0
    ],
    "_placeholder_": "Password",
    "_right_": {
        "type": "number",
        "value": "0"
    },
    "_skin_": "s9cdbfcc60154bd9bb25ce03901e71d2",
    "_text_": "",
    "_top_": {
        "type": "string",
        "value": "15%"
    },
    "_width_": {
        "type": "string",
        "value": "100%"
    },
    "android": {},
    "autocapitalize": "none",
    "autocomplete": false,
    "autocorrect": false,
    "autofilter": false,
    "canUpdateUI": true,
    "containerheight": "",
    "containerheightmode": 1,
    "containerweight": 100,
    "contentalignment": 4,
    "enabled": false,
    "focusskin": "s9cdbfcc60154bd9bb25ce03901e71d2",
    "id": "tbxPassword",
    "info": null,
    "iphone": {},
    "isvisible": true,
    "keyboardtype": "A",
    "kuid": "b9604a45576241f09cad409985675954",
    "maxtextlength": 30,
    "mode": "A",
    "name": "kony.ui.TextBox2",
    "parent": "flxPassword",
    "pf": "frmLogin",
    "placeholderskin": "sbea76a6ab834c9e93f5e4444a7250b0",
    "securetextentry": true,
    "textinputmode": "A",
    "viewtype": "default",
    "wType": "TextField"
}