{
    "DNDConfig": null,
    "__parentReadjusting__": false,
    "_height_": {
        "type": "string",
        "value": "16%"
    },
    "_left_": {
        "type": "string",
        "value": "67dp"
    },
    "_margin_": [
        0,
        0,
        0,
        0
    ],
    "_orientation_": 6,
    "_padding_": [
        0,
        0,
        0,
        0
    ],
    "_percent_": true,
    "_skin_": "s1a8378600fd4672a37662c55df41f04",
    "_top_": {
        "type": "string",
        "value": "92dp"
    },
    "_width_": {
        "type": "string",
        "value": "26%"
    },
    "allboxes": [],
    "autogrowmode": 0,
    "canUpdateUI": true,
    "centerx": {
        "type": "string",
        "value": "35%"
    },
    "children": [
        "CopyLabel07145a15c1f4b43"
    ],
    "clipbounds": true,
    "containerweight": 100,
    "enablescrolling": true,
    "id": "CopyFlexContainer0b198604f24cd45",
    "info": null,
    "isvisible": true,
    "kuid": "d574c68e471a4c058f1404d7d82aeecc",
    "layouttype": 2,
    "name": "kony.ui.FlexContainer",
    "parent": "flxCard3",
    "pf": "frmDashboard",
    "snapgridsize": 10,
    "snaptogrid": true,
    "wType": "FlexContainer",
    "widgetalignment": 1,
    "zindex": 1
}