{
    "DNDConfig": null,
    "__parentReadjusting__": false,
    "_height_": {
        "type": "string",
        "value": "16%"
    },
    "_left_": {
        "type": "string",
        "value": "67dp"
    },
    "_margin_": [
        0,
        0,
        0,
        0
    ],
    "_orientation_": 6,
    "_padding_": [
        0,
        0,
        0,
        0
    ],
    "_percent_": true,
    "_skin_": "s1a8378600fd4672a37662c55df41f04",
    "_top_": {
        "type": "string",
        "value": "92dp"
    },
    "_width_": {
        "type": "string",
        "value": "26%"
    },
    "allboxes": [],
    "autogrowmode": 0,
    "canUpdateUI": true,
    "centerx": {
        "type": "string",
        "value": "65%"
    },
    "children": [
        "CopyLabel08817b0e3203546"
    ],
    "clipbounds": true,
    "containerweight": 100,
    "enablescrolling": true,
    "id": "CopyFlexContainer0d6dc76cd1a7943",
    "info": null,
    "isvisible": true,
    "kuid": "d8c816b7ed504decba5a651dc5837a1a",
    "layouttype": 2,
    "name": "kony.ui.FlexContainer",
    "parent": "flxCard4",
    "pf": "frmDashboard",
    "snapgridsize": 10,
    "snaptogrid": true,
    "wType": "FlexContainer",
    "widgetalignment": 1,
    "zindex": 1
}